-------------------------------------------------------------------------------
Test set: br.com.neja.MobilePedidosApplicationTests
-------------------------------------------------------------------------------
Tests run: 1, Failures: 0, Errors: 0, Skipped: 0, Time elapsed: 14.729 s - in br.com.neja.MobilePedidosApplicationTests
